{"logLevel":"debug","message":"multithreading is set to false"}
{"logLevel":"debug","message":"Using reflection to scan dependencies for gauge implementations..."}
{"logLevel":"debug","message":"gauge-java took 939milliseconds to load and scan. This should be less than 'runner_connection_timeout' config value."}
{"logLevel":"debug","message":"run 'gauge config runner_connection_timeout' and verify that it is < 939"}
{"logLevel":"debug","message":"starting gRPC server..."}
{"logLevel":"debug","message":"started gRPC server on port 55523"}
{"logLevel":"info","message":"Listening on port:55523"}
{"logLevel":"debug","message":"Scanning packages for steps"}
{"logLevel":"debug","message":"Comparing 'Anasayfa.girisBilgileri' and 'Anasayfa.girisBilgileri'"}
{"logLevel":"debug","message":"Found {} ve {} ile sisteme giris in current project scope."}
{"logLevel":"debug","message":"Comparing 'Anasayfa.butonKontrol' and 'Anasayfa.butonKontrol'"}
{"logLevel":"debug","message":"Found Buton Kontrol Et in current project scope."}
{"logLevel":"debug","message":"Comparing 'Anasayfa.girisSayfasi' and 'Anasayfa.girisSayfasi'"}
{"logLevel":"debug","message":"Found Giris Sayfasina Git in current project scope."}
{"logLevel":"debug","message":"Comparing 'Anasayfa.anaSayfayaGit' and 'Anasayfa.anaSayfayaGit'"}
{"logLevel":"debug","message":"Found Anasayfaya Git in current project scope."}
{"logLevel":"debug","message":"Comparing 'Anasayfa.girisKontrol' and 'Anasayfa.girisKontrol'"}
{"logLevel":"debug","message":"Found {} ile Giris Dogrulugu Kontrol in current project scope."}
{"logLevel":"debug","message":"Comparing 'Anasayfa.butonKontrol2' and 'Anasayfa.butonKontrol2'"}
{"logLevel":"debug","message":"Found Giris Sayfasi Buton Kontrol in current project scope."}
{"logLevel":"debug","message":"Scanning packages for hooks"}
{"logLevel":"debug","message":"Scanned steps (using static parsing + reflections): "}
{"logLevel":"debug","message":"\tGiris Sayfasina Git : public void girisSayfasi() throws InterruptedException"}
{"logLevel":"debug","message":"\tAnasayfaya Git : public void anaSayfayaGit()"}
{"logLevel":"debug","message":"\tGiris Sayfasi Buton Kontrol : public void butonKontrol2()"}
{"logLevel":"debug","message":"\tButon Kontrol Et : public void butonKontrol()"}
{"logLevel":"debug","message":"\t{} ve {} ile sisteme giris : public void girisBilgileri(String email, String sifre) throws InterruptedException"}
{"logLevel":"debug","message":"\t{} ile Giris Dogrulugu Kontrol : public void girisKontrol(String isimSoyisim)"}
