{"logLevel":"debug","message":"multithreading is set to false"}
{"logLevel":"debug","message":"Using reflection to scan dependencies for gauge implementations..."}
{"logLevel":"debug","message":"gauge-java took 915milliseconds to load and scan. This should be less than 'runner_connection_timeout' config value."}
{"logLevel":"debug","message":"run 'gauge config runner_connection_timeout' and verify that it is < 915"}
{"logLevel":"debug","message":"starting gRPC server..."}
{"logLevel":"debug","message":"started gRPC server on port 60709"}
{"logLevel":"info","message":"Listening on port:60709"}
{"logLevel":"debug","message":"Scanning packages for steps"}
{"logLevel":"debug","message":"Comparing 'Anasayfa.sifreDoldur' and 'Anasayfa.sifreDoldur'"}
{"logLevel":"debug","message":"Found {} ile sifre bolumunu doldur in current project scope."}
{"logLevel":"debug","message":"Comparing 'Anasayfa.girisMenusunuAc' and 'Anasayfa.girisMenusunuAc'"}
{"logLevel":"debug","message":"Found giris menusunu ac in current project scope."}
{"logLevel":"debug","message":"Comparing 'Anasayfa.girisYap' and 'Anasayfa.girisYap'"}
{"logLevel":"debug","message":"Found Giris yap butonuna tikla in current project scope."}
{"logLevel":"debug","message":"Comparing 'Anasayfa.girisSayfasınaGit' and 'Anasayfa.girisSayfasınaGit'"}
{"logLevel":"debug","message":"Found Giris sayfasına git in current project scope."}
{"logLevel":"debug","message":"Comparing 'Anasayfa.hesabimSayfasinaGit' and 'Anasayfa.hesabimSayfasinaGit'"}
{"logLevel":"debug","message":"Found Hesabim sayfasina git in current project scope."}
{"logLevel":"debug","message":"Comparing 'Anasayfa.titleKontrol' and 'Anasayfa.titleKontrol'"}
{"logLevel":"debug","message":"Found {} title kontrol et in current project scope."}
{"logLevel":"debug","message":"Comparing 'Anasayfa.anasayfayaGit' and 'Anasayfa.anasayfayaGit'"}
{"logLevel":"debug","message":"Found Anasayfaya git in current project scope."}
{"logLevel":"debug","message":"Comparing 'Anasayfa.emailDoldur' and 'Anasayfa.emailDoldur'"}
{"logLevel":"debug","message":"Found {} ile email bolumunu doldur in current project scope."}
{"logLevel":"debug","message":"Comparing 'Anasayfa.anaSayfayaGit' and 'Anasayfa.anaSayfayaGit'"}
{"logLevel":"debug","message":"Found Anasayfaya Git in current project scope."}
{"logLevel":"debug","message":"Comparing 'Anasayfa.isimKarsilastir' and 'Anasayfa.isimKarsilastir'"}
{"logLevel":"debug","message":"Found {} ile karsilastir in current project scope."}
{"logLevel":"debug","message":"Scanning packages for hooks"}
{"logLevel":"debug","message":"Scanned steps (using static parsing + reflections): "}
{"logLevel":"debug","message":"\tGiris yap butonuna tikla : public void girisYap() throws InterruptedException"}
{"logLevel":"debug","message":"\tAnasayfaya Git : public void anaSayfayaGit()"}
{"logLevel":"debug","message":"\t{} title kontrol et : public void titleKontrol(String title)"}
{"logLevel":"debug","message":"\tAnasayfaya git : public void anasayfayaGit() throws InterruptedException"}
{"logLevel":"debug","message":"\tgiris menusunu ac : public void girisMenusunuAc() throws InterruptedException"}
{"logLevel":"debug","message":"\t{} ile karsilastir : public void isimKarsilastir(String isim)"}
{"logLevel":"debug","message":"\tHesabim sayfasina git : public void hesabimSayfasinaGit() throws InterruptedException"}
{"logLevel":"debug","message":"\t{} ile email bolumunu doldur : public void emailDoldur(String email) throws InterruptedException"}
{"logLevel":"debug","message":"\tGiris sayfasına git : public void girisSayfasınaGit() throws InterruptedException"}
{"logLevel":"debug","message":"\t{} ile sifre bolumunu doldur : public void sifreDoldur(String sifre) throws InterruptedException"}
-----Senaryo başlangıcı----
Starting ChromeDriver 87.0.4280.88 (89e2380a3e36c3464b5dd1302349b1382549290d-refs/branch-heads/4280@{#1761}) on port 45925
Only local connections are allowed.
Please see https://chromedriver.chromium.org/security-considerations for suggestions on keeping ChromeDriver safe.
ChromeDriver was started successfully.
Oca 14, 2021 6:05:10 PM org.openqa.selenium.remote.ProtocolHandshake createSession
INFO: Detected dialect: W3C
{"logLevel":"debug","message":"Executing 'Anasayfaya git' using 'class Anasayfa.anasayfayaGit"}
{"logLevel":"debug","message":"Executing '{} title kontrol et' using 'class Anasayfa.titleKontrol"}
--------SAYFA YUKLENDI:Türkiye'nin En Büyük Online Alışveriş Sitesi Hepsiburada.com--------
{"logLevel":"debug","message":"Executing 'giris menusunu ac' using 'class Anasayfa.girisMenusunuAc"}
{"logLevel":"debug","message":"Executing 'Giris sayfasına git' using 'class Anasayfa.girisSayfasınaGit"}
{"logLevel":"debug","message":"Executing '{} title kontrol et' using 'class Anasayfa.titleKontrol"}
--------SAYFA YUKLENDI:Üye Giriş Sayfası & Üye Ol - Hepsiburada--------
{"logLevel":"debug","message":"Executing '{} ile email bolumunu doldur' using 'class Anasayfa.emailDoldur"}
{"logLevel":"debug","message":"Executing '{} ile sifre bolumunu doldur' using 'class Anasayfa.sifreDoldur"}
{"logLevel":"debug","message":"Executing 'Giris yap butonuna tikla' using 'class Anasayfa.girisYap"}
{"logLevel":"debug","message":"Executing '{} title kontrol et' using 'class Anasayfa.titleKontrol"}
--------SAYFA YUKLENDI:Türkiye'nin En Büyük Online Alışveriş Sitesi Hepsiburada.com--------
{"logLevel":"debug","message":"Executing 'giris menusunu ac' using 'class Anasayfa.girisMenusunuAc"}
{"logLevel":"debug","message":"Executing 'Hesabim sayfasina git' using 'class Anasayfa.hesabimSayfasinaGit"}
{"logLevel":"debug","message":"Executing '{} title kontrol et' using 'class Anasayfa.titleKontrol"}
--------SAYFA YUKLENDI:Hesabım--------
{"logLevel":"debug","message":"Executing '{} ile karsilastir' using 'class Anasayfa.isimKarsilastir"}
-----Senaryo sonu----
-----Senaryo başlangıcı----
Starting ChromeDriver 87.0.4280.88 (89e2380a3e36c3464b5dd1302349b1382549290d-refs/branch-heads/4280@{#1761}) on port 25156
Only local connections are allowed.
Please see https://chromedriver.chromium.org/security-considerations for suggestions on keeping ChromeDriver safe.
ChromeDriver was started successfully.
Oca 14, 2021 6:05:51 PM org.openqa.selenium.remote.ProtocolHandshake createSession
INFO: Detected dialect: W3C
{"logLevel":"debug","message":"Executing 'Anasayfaya git' using 'class Anasayfa.anasayfayaGit"}
{"logLevel":"debug","message":"Executing '{} title kontrol et' using 'class Anasayfa.titleKontrol"}
--------SAYFA YUKLENDI:Türkiye'nin En Büyük Online Alışveriş Sitesi Hepsiburada.com--------
{"logLevel":"debug","message":"Executing 'giris menusunu ac' using 'class Anasayfa.girisMenusunuAc"}
{"logLevel":"debug","message":"Executing 'Giris sayfasına git' using 'class Anasayfa.girisSayfasınaGit"}
{"logLevel":"debug","message":"Executing '{} title kontrol et' using 'class Anasayfa.titleKontrol"}
--------SAYFA YUKLENDI:Üye Giriş Sayfası & Üye Ol - Hepsiburada--------
{"logLevel":"debug","message":"Executing '{} ile email bolumunu doldur' using 'class Anasayfa.emailDoldur"}
{"logLevel":"debug","message":"Executing '{} ile sifre bolumunu doldur' using 'class Anasayfa.sifreDoldur"}
{"logLevel":"debug","message":"Executing 'Giris yap butonuna tikla' using 'class Anasayfa.girisYap"}
{"logLevel":"debug","message":"Executing '{} title kontrol et' using 'class Anasayfa.titleKontrol"}
