{"logLevel":"debug","message":"multithreading is set to false"}
{"logLevel":"debug","message":"Using reflection to scan dependencies for gauge implementations..."}
log4j:WARN No appenders could be found for logger (io.grpc.netty.shaded.io.netty.util.internal.logging.InternalLoggerFactory).
log4j:WARN Please initialize the log4j system properly.
log4j:WARN See http://logging.apache.org/log4j/1.2/faq.html#noconfig for more info.
{"logLevel":"debug","message":"gauge-java took 1083milliseconds to load and scan. This should be less than 'runner_connection_timeout' config value."}
{"logLevel":"debug","message":"run 'gauge config runner_connection_timeout' and verify that it is < 1083"}
{"logLevel":"debug","message":"starting gRPC server..."}
{"logLevel":"debug","message":"started gRPC server on port 64255"}
{"logLevel":"info","message":"Listening on port:64255"}
{"logLevel":"debug","message":"Scanning packages for steps"}
{"logLevel":"debug","message":"Comparing 'Anasayfa.girisMenusunuAc' and 'Anasayfa.girisMenusunuAc'"}
{"logLevel":"debug","message":"Found {} ustune gel ve ac in current project scope."}
{"logLevel":"debug","message":"Comparing 'Anasayfa.titleKontrol' and 'Anasayfa.titleKontrol'"}
{"logLevel":"debug","message":"Found {} title kontrol et in current project scope."}
{"logLevel":"debug","message":"Comparing 'Anasayfa.inputDoldur' and 'Anasayfa.inputDoldur'"}
{"logLevel":"debug","message":"Found {} ile {} bolumunu doldur in current project scope."}
{"logLevel":"debug","message":"Comparing 'Anasayfa.anasayfayaGit' and 'Anasayfa.anasayfayaGit'"}
{"logLevel":"debug","message":"Found Anasayfaya git in current project scope."}
{"logLevel":"debug","message":"Comparing 'Anasayfa.tıkla' and 'Anasayfa.tıkla'"}
{"logLevel":"debug","message":"Found {} e tikla in current project scope."}
{"logLevel":"debug","message":"Comparing 'Anasayfa.isimKarsilastir' and 'Anasayfa.isimKarsilastir'"}
{"logLevel":"debug","message":"Found {} ile karsilastir in current project scope."}
{"logLevel":"debug","message":"Scanning packages for hooks"}
{"logLevel":"debug","message":"Scanned steps (using static parsing + reflections): "}
{"logLevel":"debug","message":"\t{} ustune gel ve ac : public void girisMenusunuAc(String elementKey) throws InterruptedException"}
{"logLevel":"debug","message":"\t{} title kontrol et : public void titleKontrol(String title)"}
{"logLevel":"debug","message":"\tAnasayfaya git : public void anasayfayaGit() throws InterruptedException"}
{"logLevel":"debug","message":"\t{} ile karsilastir : public void isimKarsilastir(String isim)"}
{"logLevel":"debug","message":"\t{} ile {} bolumunu doldur : public void inputDoldur(String input, String elementKey) throws InterruptedException"}
{"logLevel":"debug","message":"\t{} e tikla : public void tıkla(String elementKey) throws InterruptedException"}
-----Senaryo başlangıcı----
Starting ChromeDriver 87.0.4280.88 (89e2380a3e36c3464b5dd1302349b1382549290d-refs/branch-heads/4280@{#1761}) on port 45909
Only local connections are allowed.
Please see https://chromedriver.chromium.org/security-considerations for suggestions on keeping ChromeDriver safe.
ChromeDriver was started successfully.
Oca 15, 2021 11:50:48 AM org.openqa.selenium.remote.ProtocolHandshake createSession
INFO: Detected dialect: W3C
{"logLevel":"debug","message":"Executing 'Anasayfaya git' using 'class Anasayfa.anasayfayaGit"}
{"logLevel":"debug","message":"Executing '{} title kontrol et' using 'class Anasayfa.titleKontrol"}
--------SAYFA YUKLENDI:Türkiye'nin En Büyük Online Alışveriş Sitesi Hepsiburada.com--------
{"logLevel":"debug","message":"Executing '{} ustune gel ve ac' using 'class Anasayfa.girisMenusunuAc"}
-----Senaryo sonu----
-----Senaryo başlangıcı----
Starting ChromeDriver 87.0.4280.88 (89e2380a3e36c3464b5dd1302349b1382549290d-refs/branch-heads/4280@{#1761}) on port 3218
Only local connections are allowed.
Please see https://chromedriver.chromium.org/security-considerations for suggestions on keeping ChromeDriver safe.
ChromeDriver was started successfully.
[1610700663.582][WARNING]: Timed out connecting to Chrome, retrying...
-----Senaryo sonu----
-----Senaryo başlangıcı----
Starting ChromeDriver 87.0.4280.88 (89e2380a3e36c3464b5dd1302349b1382549290d-refs/branch-heads/4280@{#1761}) on port 8421
Only local connections are allowed.
Please see https://chromedriver.chromium.org/security-considerations for suggestions on keeping ChromeDriver safe.
ChromeDriver was started successfully.
Oca 15, 2021 11:51:15 AM org.openqa.selenium.remote.ProtocolHandshake createSession
INFO: Detected dialect: W3C
[1610700679.151][WARNING]: Timed out connecting to Chrome, retrying...
[1610700687.235][WARNING]: Timed out connecting to Chrome, retrying...
{"logLevel":"debug","message":"Executing 'Anasayfaya git' using 'class Anasayfa.anasayfayaGit"}
[1610700699.455][WARNING]: Timed out connecting to Chrome, retrying...
-----Senaryo sonu----
-----Senaryo başlangıcı----
Starting ChromeDriver 87.0.4280.88 (89e2380a3e36c3464b5dd1302349b1382549290d-refs/branch-heads/4280@{#1761}) on port 30741
Only local connections are allowed.
Please see https://chromedriver.chromium.org/security-considerations for suggestions on keeping ChromeDriver safe.
ChromeDriver was started successfully.
Oca 15, 2021 11:51:51 AM org.openqa.selenium.remote.ProtocolHandshake createSession
INFO: Detected dialect: W3C
{"logLevel":"debug","message":"Executing 'Anasayfaya git' using 'class Anasayfa.anasayfayaGit"}
